npc/vsrc/mul_div/test_run_dir/DUT_should_pass/div_test.vcd
$date
2023-05-26T09:38+0000
$end
$version
0.2
$end
$comment

$end
$timescale 1ns  $end
$scope module div_test $end
 $var wire 64 & io_out_r $end
 $var wire 64 2 io_out_q $end
 $var wire 64 3 io_b $end
 $var wire 1 6 clock $end
 $var wire 64 ; io_a $end
 $var wire 1 ? reset $end
 $var wire 1 B Div $end
  $scope module Div $end
   $var wire 64 ! src2_32_s $end
   $var wire 1 " io_div_signed $end
   $var wire 1 # remainder_neg $end
   $var wire 1 $ io_div_valid $end
   $var wire 64 % io_dividend $end
   $var wire 64 ' io_quotient $end
   $var wire 64 ( quotient $end
   $var wire 128 ) new_cand $end
   $var wire 1 * div_start $end
   $var wire 1 + dend_neg $end
   $var wire 65 , src2 $end
   $var wire 128 - div_cand $end
   $var wire 64 . io_remainder $end
   $var wire 1 / clock $end
   $var wire 65 0 sub_res $end
   $var wire 64 1 src2_32 $end
   $var wire 1 4 io_divw $end
   $var wire 64 5 real_er $end
   $var wire 128 7 src1 $end
   $var wire 64 8 io_divisor $end
   $var wire 1 9 sor_neg $end
   $var wire 128 : update_cand $end
   $var wire 1 < quotient_neg $end
   $var wire 64 = src1_32_s $end
   $var wire 64 > real_cand $end
   $var wire 1 @ reset $end
   $var wire 64 A src1_32 $end
   $var wire 32 C step_num $end
  $upscope $end
$upscope $end
$enddefinitions $end
$dumpvars
0<
b0000000000000000000000000000000000000000000000000000000000000000 5
b0000000000000000000000000000000000000000000000000000000000000000 !
06
b0000000000000000000000000000000000000000000000000000000000000000 8
0"
b0000000000000000000000000000000000000000000000000000000000000000 1
0#
09
b0000000000000000000000000000000000000000000000000000000000000000 2
b0000000000000000000000000000000000000000000000000000000000000000 3
b00000000000000000000000000000000000000000000000000000000000000000 0
b00000000000000000000000000000000000000000000000000000000000000000000000000000000000000000000000000000000000000000000000000000000 7
04
b0000000000000000000000000000000000000000000000000000000000000000 .
b00000000000000000000000000000000000000000000000000000000000000000000000000000000000000000000000000000000000000000000000000000000 :
b0000000000000000000000000000000000000000000000000000000000000000 &
b00000000000000000000000000000000000000000000000000000000000000000 ,
b0000000000000000000000000000000000000000000000000000000000000000 '
0/
b0000000000000000000000000000000000000000000000000000000000000000 =
b0000000000000000000000000000000000000000000000000000000000000000 (
b0000000000000000000000000000000000000000000000000000000000000000 >
b00000000000000000000000000000000000000000000000000000000000000000000000000000000000000000000000000000000000000000000000000000000 -
0?
0*
b0000000000000000000000000000000000000000000000000000000000000000 A
0@
0+
b0000000000000000000000000000000000000000000000000000000000000000 %
0$
b00000000000000000000000000000000000000000000000000000000000000000000000000000000000000000000000000000000000000000000000000000000 )
0B
b00000000000000000000000000000000 C
b0000000000000000000000000000000000000000000000000000000000000000 ;
$end
#0
1?
14
1"
1@
1$
#1
16
1/
#6
b0000000000000000000000000000000000000000000000000000000000001110 3
1<
b1111111111111111111111111111111111111111111111111111111111110001 %
b0000000000000000000000000000000000000000000000000000000000001110 5
06
b1111111111111111111111111111111111111111111111111111111111110001 =
b00000000000000000000000000000000000000000000000000000000000000000000000000000000000000000000000000000000000000000000000000001111 7
0/
b0000000000000000000000000000000000000000000000000000000000001111 >
b0000000000000000000000000000000000000000000000000000000000001110 !
b11111111111111111111111111111111111111111111111111111111111110010 0
0?
b0000000000000000000000000000000000000000000000000000000000001110 1
0@
b0000000000000000000000000000000000000000000000000000000000001110 8
1#
1+
b11111111111111111111111111111111111111111111111111111111111110010000000000000000000000000000000000000000000000000000000000000000 :
b0000000000000000000000000000000011111111111111111111111111110001 A
b00000000000000000000000000000000000000000000000000000000000001110 ,
b1111111111111111111111111111111111111111111111111111111111110001 ;
#11
b00000000000000000000000000000000000000000000000000000000000000000000000000000000000000000000000000000000000000000000000000001111 -
b00000000000000000000000001000000 C
1*
16
1/
b00000000000000000000000000000000000000000000000000000000000000000000000000000000000000000000000000000000000000000000000000001111 )
#16
06
0/
#21
b00000000000000000000000000000000000000000000000000000000000000000000000000000000000000000000000000000000000000000000000000011110 -
b00000000000000000000000000111111 C
16
1/
b00000000000000000000000000000000000000000000000000000000000000000000000000000000000000000000000000000000000000000000000000011110 )
#26
06
0/
#31
b00000000000000000000000000000000000000000000000000000000000000000000000000000000000000000000000000000000000000000000000000111100 -
b00000000000000000000000000111110 C
16
1/
b00000000000000000000000000000000000000000000000000000000000000000000000000000000000000000000000000000000000000000000000000111100 )
#36
06
0/
#41
b00000000000000000000000000000000000000000000000000000000000000000000000000000000000000000000000000000000000000000000000001111000 -
b00000000000000000000000000111101 C
16
1/
b00000000000000000000000000000000000000000000000000000000000000000000000000000000000000000000000000000000000000000000000001111000 )
#46
06
0/
#51
b00000000000000000000000000000000000000000000000000000000000000000000000000000000000000000000000000000000000000000000000011110000 -
b00000000000000000000000000111100 C
16
1/
b00000000000000000000000000000000000000000000000000000000000000000000000000000000000000000000000000000000000000000000000011110000 )
#56
06
0/
#61
b00000000000000000000000000000000000000000000000000000000000000000000000000000000000000000000000000000000000000000000000111100000 -
b00000000000000000000000000111011 C
16
1/
b00000000000000000000000000000000000000000000000000000000000000000000000000000000000000000000000000000000000000000000000111100000 )
#66
06
0/
#71
b00000000000000000000000000000000000000000000000000000000000000000000000000000000000000000000000000000000000000000000001111000000 -
b00000000000000000000000000111010 C
16
1/
b00000000000000000000000000000000000000000000000000000000000000000000000000000000000000000000000000000000000000000000001111000000 )
#76
06
0/
#81
b00000000000000000000000000000000000000000000000000000000000000000000000000000000000000000000000000000000000000000000011110000000 -
b00000000000000000000000000111001 C
16
1/
b00000000000000000000000000000000000000000000000000000000000000000000000000000000000000000000000000000000000000000000011110000000 )
#86
06
0/
#91
b00000000000000000000000000000000000000000000000000000000000000000000000000000000000000000000000000000000000000000000111100000000 -
b00000000000000000000000000111000 C
16
1/
b00000000000000000000000000000000000000000000000000000000000000000000000000000000000000000000000000000000000000000000111100000000 )
#96
06
0/
#101
b00000000000000000000000000000000000000000000000000000000000000000000000000000000000000000000000000000000000000000001111000000000 -
b00000000000000000000000000110111 C
16
1/
b00000000000000000000000000000000000000000000000000000000000000000000000000000000000000000000000000000000000000000001111000000000 )
#106
06
0/
#111
b00000000000000000000000000000000000000000000000000000000000000000000000000000000000000000000000000000000000000000011110000000000 -
b00000000000000000000000000110110 C
16
1/
b00000000000000000000000000000000000000000000000000000000000000000000000000000000000000000000000000000000000000000011110000000000 )
#116
06
0/
#121
b00000000000000000000000000000000000000000000000000000000000000000000000000000000000000000000000000000000000000000111100000000000 -
b00000000000000000000000000110101 C
16
1/
b00000000000000000000000000000000000000000000000000000000000000000000000000000000000000000000000000000000000000000111100000000000 )
#126
06
0/
#131
b00000000000000000000000000000000000000000000000000000000000000000000000000000000000000000000000000000000000000001111000000000000 -
b00000000000000000000000000110100 C
16
1/
b00000000000000000000000000000000000000000000000000000000000000000000000000000000000000000000000000000000000000001111000000000000 )
#136
06
0/
#141
b00000000000000000000000000000000000000000000000000000000000000000000000000000000000000000000000000000000000000011110000000000000 -
b00000000000000000000000000110011 C
16
1/
b00000000000000000000000000000000000000000000000000000000000000000000000000000000000000000000000000000000000000011110000000000000 )
#146
06
0/
#151
b00000000000000000000000000000000000000000000000000000000000000000000000000000000000000000000000000000000000000111100000000000000 -
b00000000000000000000000000110010 C
16
1/
b00000000000000000000000000000000000000000000000000000000000000000000000000000000000000000000000000000000000000111100000000000000 )
#156
06
0/
#161
b00000000000000000000000000000000000000000000000000000000000000000000000000000000000000000000000000000000000001111000000000000000 -
b00000000000000000000000000110001 C
16
1/
b00000000000000000000000000000000000000000000000000000000000000000000000000000000000000000000000000000000000001111000000000000000 )
#166
06
0/
#171
b00000000000000000000000000000000000000000000000000000000000000000000000000000000000000000000000000000000000011110000000000000000 -
b00000000000000000000000000110000 C
16
1/
b00000000000000000000000000000000000000000000000000000000000000000000000000000000000000000000000000000000000011110000000000000000 )
#176
06
0/
#181
b00000000000000000000000000000000000000000000000000000000000000000000000000000000000000000000000000000000000111100000000000000000 -
b00000000000000000000000000101111 C
16
1/
b00000000000000000000000000000000000000000000000000000000000000000000000000000000000000000000000000000000000111100000000000000000 )
#186
06
0/
#191
b00000000000000000000000000000000000000000000000000000000000000000000000000000000000000000000000000000000001111000000000000000000 -
b00000000000000000000000000101110 C
16
1/
b00000000000000000000000000000000000000000000000000000000000000000000000000000000000000000000000000000000001111000000000000000000 )
#196
06
0/
#201
b00000000000000000000000000000000000000000000000000000000000000000000000000000000000000000000000000000000011110000000000000000000 -
b00000000000000000000000000101101 C
16
1/
b00000000000000000000000000000000000000000000000000000000000000000000000000000000000000000000000000000000011110000000000000000000 )
#206
06
0/
#211
b00000000000000000000000000000000000000000000000000000000000000000000000000000000000000000000000000000000111100000000000000000000 -
b00000000000000000000000000101100 C
16
1/
b00000000000000000000000000000000000000000000000000000000000000000000000000000000000000000000000000000000111100000000000000000000 )
#216
06
0/
#221
b00000000000000000000000000000000000000000000000000000000000000000000000000000000000000000000000000000001111000000000000000000000 -
b00000000000000000000000000101011 C
16
1/
b00000000000000000000000000000000000000000000000000000000000000000000000000000000000000000000000000000001111000000000000000000000 )
#226
06
0/
#231
b00000000000000000000000000000000000000000000000000000000000000000000000000000000000000000000000000000011110000000000000000000000 -
b00000000000000000000000000101010 C
16
1/
b00000000000000000000000000000000000000000000000000000000000000000000000000000000000000000000000000000011110000000000000000000000 )
#236
06
0/
#241
b00000000000000000000000000000000000000000000000000000000000000000000000000000000000000000000000000000111100000000000000000000000 -
b00000000000000000000000000101001 C
16
1/
b00000000000000000000000000000000000000000000000000000000000000000000000000000000000000000000000000000111100000000000000000000000 )
#246
06
0/
#251
b00000000000000000000000000000000000000000000000000000000000000000000000000000000000000000000000000001111000000000000000000000000 -
b00000000000000000000000000101000 C
16
1/
b00000000000000000000000000000000000000000000000000000000000000000000000000000000000000000000000000001111000000000000000000000000 )
#256
06
0/
#261
b00000000000000000000000000000000000000000000000000000000000000000000000000000000000000000000000000011110000000000000000000000000 -
b00000000000000000000000000100111 C
16
1/
b00000000000000000000000000000000000000000000000000000000000000000000000000000000000000000000000000011110000000000000000000000000 )
#266
06
0/
#271
b00000000000000000000000000000000000000000000000000000000000000000000000000000000000000000000000000111100000000000000000000000000 -
b00000000000000000000000000100110 C
16
1/
b00000000000000000000000000000000000000000000000000000000000000000000000000000000000000000000000000111100000000000000000000000000 )
#276
06
0/
#281
b00000000000000000000000000000000000000000000000000000000000000000000000000000000000000000000000001111000000000000000000000000000 -
b00000000000000000000000000100101 C
16
1/
b00000000000000000000000000000000000000000000000000000000000000000000000000000000000000000000000001111000000000000000000000000000 )
#286
06
0/
#291
b00000000000000000000000000000000000000000000000000000000000000000000000000000000000000000000000011110000000000000000000000000000 -
b00000000000000000000000000100100 C
16
1/
b00000000000000000000000000000000000000000000000000000000000000000000000000000000000000000000000011110000000000000000000000000000 )
#296
06
0/
#301
b00000000000000000000000000000000000000000000000000000000000000000000000000000000000000000000000111100000000000000000000000000000 -
b00000000000000000000000000100011 C
16
1/
b00000000000000000000000000000000000000000000000000000000000000000000000000000000000000000000000111100000000000000000000000000000 )
#306
06
0/
#311
b00000000000000000000000000000000000000000000000000000000000000000000000000000000000000000000001111000000000000000000000000000000 -
b00000000000000000000000000100010 C
16
1/
b00000000000000000000000000000000000000000000000000000000000000000000000000000000000000000000001111000000000000000000000000000000 )
#316
06
0/
#321
b00000000000000000000000000000000000000000000000000000000000000000000000000000000000000000000011110000000000000000000000000000000 -
b00000000000000000000000000100001 C
16
1/
b00000000000000000000000000000000000000000000000000000000000000000000000000000000000000000000011110000000000000000000000000000000 )
#326
06
0/
#331
b00000000000000000000000000000000000000000000000000000000000000000000000000000000000000000000111100000000000000000000000000000000 -
b00000000000000000000000000100000 C
16
1/
b00000000000000000000000000000000000000000000000000000000000000000000000000000000000000000000111100000000000000000000000000000000 )
#336
06
0/
#341
b00000000000000000000000000000000000000000000000000000000000000000000000000000000000000000001111000000000000000000000000000000000 -
b00000000000000000000000000011111 C
16
1/
b00000000000000000000000000000000000000000000000000000000000000000000000000000000000000000001111000000000000000000000000000000000 )
#346
06
0/
#351
b00000000000000000000000000000000000000000000000000000000000000000000000000000000000000000011110000000000000000000000000000000000 -
b00000000000000000000000000011110 C
16
1/
b00000000000000000000000000000000000000000000000000000000000000000000000000000000000000000011110000000000000000000000000000000000 )
#356
06
0/
#361
b00000000000000000000000000000000000000000000000000000000000000000000000000000000000000000111100000000000000000000000000000000000 -
b00000000000000000000000000011101 C
16
1/
b00000000000000000000000000000000000000000000000000000000000000000000000000000000000000000111100000000000000000000000000000000000 )
#366
06
0/
#371
b00000000000000000000000000000000000000000000000000000000000000000000000000000000000000001111000000000000000000000000000000000000 -
b00000000000000000000000000011100 C
16
1/
b00000000000000000000000000000000000000000000000000000000000000000000000000000000000000001111000000000000000000000000000000000000 )
#376
06
0/
#381
b00000000000000000000000000000000000000000000000000000000000000000000000000000000000000011110000000000000000000000000000000000000 -
b00000000000000000000000000011011 C
16
1/
b00000000000000000000000000000000000000000000000000000000000000000000000000000000000000011110000000000000000000000000000000000000 )
#386
06
0/
#391
b00000000000000000000000000000000000000000000000000000000000000000000000000000000000000111100000000000000000000000000000000000000 -
b00000000000000000000000000011010 C
16
1/
b00000000000000000000000000000000000000000000000000000000000000000000000000000000000000111100000000000000000000000000000000000000 )
#396
06
0/
#401
b00000000000000000000000000000000000000000000000000000000000000000000000000000000000001111000000000000000000000000000000000000000 -
b00000000000000000000000000011001 C
16
1/
b00000000000000000000000000000000000000000000000000000000000000000000000000000000000001111000000000000000000000000000000000000000 )
#406
06
0/
#411
b00000000000000000000000000000000000000000000000000000000000000000000000000000000000011110000000000000000000000000000000000000000 -
b00000000000000000000000000011000 C
16
1/
b00000000000000000000000000000000000000000000000000000000000000000000000000000000000011110000000000000000000000000000000000000000 )
#416
06
0/
#421
b00000000000000000000000000000000000000000000000000000000000000000000000000000000000111100000000000000000000000000000000000000000 -
b00000000000000000000000000010111 C
16
1/
b00000000000000000000000000000000000000000000000000000000000000000000000000000000000111100000000000000000000000000000000000000000 )
#426
06
0/
#431
b00000000000000000000000000000000000000000000000000000000000000000000000000000000001111000000000000000000000000000000000000000000 -
b00000000000000000000000000010110 C
16
1/
b00000000000000000000000000000000000000000000000000000000000000000000000000000000001111000000000000000000000000000000000000000000 )
#436
06
0/
#441
b00000000000000000000000000000000000000000000000000000000000000000000000000000000011110000000000000000000000000000000000000000000 -
b00000000000000000000000000010101 C
16
1/
b00000000000000000000000000000000000000000000000000000000000000000000000000000000011110000000000000000000000000000000000000000000 )
#446
06
0/
#451
b00000000000000000000000000000000000000000000000000000000000000000000000000000000111100000000000000000000000000000000000000000000 -
b00000000000000000000000000010100 C
16
1/
b00000000000000000000000000000000000000000000000000000000000000000000000000000000111100000000000000000000000000000000000000000000 )
#456
06
0/
#461
b00000000000000000000000000000000000000000000000000000000000000000000000000000001111000000000000000000000000000000000000000000000 -
b00000000000000000000000000010011 C
16
1/
b00000000000000000000000000000000000000000000000000000000000000000000000000000001111000000000000000000000000000000000000000000000 )
#466
06
0/
#471
b00000000000000000000000000000000000000000000000000000000000000000000000000000011110000000000000000000000000000000000000000000000 -
b00000000000000000000000000010010 C
16
1/
b00000000000000000000000000000000000000000000000000000000000000000000000000000011110000000000000000000000000000000000000000000000 )
#476
06
0/
#481
b00000000000000000000000000000000000000000000000000000000000000000000000000000111100000000000000000000000000000000000000000000000 -
b00000000000000000000000000010001 C
16
1/
b00000000000000000000000000000000000000000000000000000000000000000000000000000111100000000000000000000000000000000000000000000000 )
#486
06
0/
#491
b00000000000000000000000000000000000000000000000000000000000000000000000000001111000000000000000000000000000000000000000000000000 -
b00000000000000000000000000010000 C
16
1/
b00000000000000000000000000000000000000000000000000000000000000000000000000001111000000000000000000000000000000000000000000000000 )
#496
06
0/
#501
b00000000000000000000000000000000000000000000000000000000000000000000000000011110000000000000000000000000000000000000000000000000 -
b00000000000000000000000000001111 C
16
1/
b00000000000000000000000000000000000000000000000000000000000000000000000000011110000000000000000000000000000000000000000000000000 )
#506
06
0/
#511
b00000000000000000000000000000000000000000000000000000000000000000000000000111100000000000000000000000000000000000000000000000000 -
b00000000000000000000000000001110 C
16
1/
b00000000000000000000000000000000000000000000000000000000000000000000000000111100000000000000000000000000000000000000000000000000 )
#516
06
0/
#521
b00000000000000000000000000000000000000000000000000000000000000000000000001111000000000000000000000000000000000000000000000000000 -
b00000000000000000000000000001101 C
16
1/
b00000000000000000000000000000000000000000000000000000000000000000000000001111000000000000000000000000000000000000000000000000000 )
#526
06
0/
#531
b00000000000000000000000000000000000000000000000000000000000000000000000011110000000000000000000000000000000000000000000000000000 -
b00000000000000000000000000001100 C
16
1/
b00000000000000000000000000000000000000000000000000000000000000000000000011110000000000000000000000000000000000000000000000000000 )
#536
06
0/
#541
b00000000000000000000000000000000000000000000000000000000000000000000000111100000000000000000000000000000000000000000000000000000 -
b00000000000000000000000000001011 C
16
1/
b00000000000000000000000000000000000000000000000000000000000000000000000111100000000000000000000000000000000000000000000000000000 )
#546
06
0/
#551
b00000000000000000000000000000000000000000000000000000000000000000000001111000000000000000000000000000000000000000000000000000000 -
b00000000000000000000000000001010 C
16
1/
b00000000000000000000000000000000000000000000000000000000000000000000001111000000000000000000000000000000000000000000000000000000 )
#556
06
0/
#561
b00000000000000000000000000000000000000000000000000000000000000000000011110000000000000000000000000000000000000000000000000000000 -
b00000000000000000000000000001001 C
16
1/
b00000000000000000000000000000000000000000000000000000000000000000000011110000000000000000000000000000000000000000000000000000000 )
#566
06
0/
#571
b00000000000000000000000000000000000000000000000000000000000000000000111100000000000000000000000000000000000000000000000000000000 -
b00000000000000000000000000001000 C
16
1/
b00000000000000000000000000000000000000000000000000000000000000000000111100000000000000000000000000000000000000000000000000000000 )
#576
06
0/
#581
b00000000000000000000000000000000000000000000000000000000000000000001111000000000000000000000000000000000000000000000000000000000 -
b00000000000000000000000000000111 C
16
1/
b00000000000000000000000000000000000000000000000000000000000000000001111000000000000000000000000000000000000000000000000000000000 )
#586
06
0/
#591
b00000000000000000000000000000000000000000000000000000000000000000011110000000000000000000000000000000000000000000000000000000000 -
b00000000000000000000000000000110 C
16
1/
b00000000000000000000000000000000000000000000000000000000000000000011110000000000000000000000000000000000000000000000000000000000 )
#596
06
0/
#601
b00000000000000000000000000000000000000000000000000000000000000000111100000000000000000000000000000000000000000000000000000000000 -
b00000000000000000000000000000101 C
16
1/
b00000000000000000000000000000000000000000000000000000000000000000111100000000000000000000000000000000000000000000000000000000000 )
#606
06
0/
#611
b11111111111111111111111111111111111111111111111111111111111110011 0
b00000000000000000000000000000000000000000000000000000000000000001111000000000000000000000000000000000000000000000000000000000000 -
b00000000000000000000000000000100 C
16
b11111111111111111111111111111111111111111111111111111111111110011000000000000000000000000000000000000000000000000000000000000000 :
1/
b00000000000000000000000000000000000000000000000000000000000000001111000000000000000000000000000000000000000000000000000000000000 )
#616
06
0/
#621
b11111111111111111111111111111111111111111111111111111111111110101 0
b00000000000000000000000000000000000000000000000000000000000000011110000000000000000000000000000000000000000000000000000000000000 -
b00000000000000000000000000000011 C
16
b11111111111111111111111111111111111111111111111111111111111110101000000000000000000000000000000000000000000000000000000000000000 :
1/
b00000000000000000000000000000000000000000000000000000000000000011110000000000000000000000000000000000000000000000000000000000000 )
#626
06
0/
#631
b11111111111111111111111111111111111111111111111111111111111111001 0
b00000000000000000000000000000000000000000000000000000000000000111100000000000000000000000000000000000000000000000000000000000000 -
b00000000000000000000000000000010 C
16
b11111111111111111111111111111111111111111111111111111111111111001000000000000000000000000000000000000000000000000000000000000000 :
1/
b00000000000000000000000000000000000000000000000000000000000000111100000000000000000000000000000000000000000000000000000000000000 )
#636
06
0/
#641
b00000000000000000000000000000000000000000000000000000000000000001 0
b00000000000000000000000000000000000000000000000000000000000001111000000000000000000000000000000000000000000000000000000000000000 -
b00000000000000000000000000000001 C
16
b00000000000000000000000000000000000000000000000000000000000000001000000000000000000000000000000000000000000000000000000000000000 :
1/
b00000000000000000000000000000000000000000000000000000000000000001000000000000000000000000000000000000000000000000000000000000000 )
#646
06
0/
#651
b11111111111111111111111111111111111111111111111111111111111110100 0
b00000000000000000000000000000000000000000000000000000000000000010000000000000000000000000000000000000000000000000000000000000000 -
b00000000000000000000000000000000 C
b1111111111111111111111111111111111111111111111111111111111111111 .
b1111111111111111111111111111111111111111111111111111111111111111 &
b1111111111111111111111111111111111111111111111111111111111111111 2
b1111111111111111111111111111111111111111111111111111111111111111 '
16
b0000000000000000000000000000000000000000000000000000000000000001 (
b11111111111111111111111111111111111111111111111111111111111110100000000000000000000000000000000000000000000000000000000000000000 :
1/
b00000000000000000000000000000000000000000000000000000000000000010000000000000000000000000000000000000000000000000000000000000000 )
#656
b0000000000000000000000000000000000000000000000000000000000000000 3
06
0/
b0000000000000000000000000000000000000000000000000000000000000000 ;
