npc/vsrc/mul_div/test_run_dir/DUT_should_pass/mul_test.vcd
$date
2023-06-01T15:36+0000
$end
$version
0.2
$end
$comment

$end
$timescale 1ns  $end
$scope module mul_test $end
 $var wire 64 ! io_out $end
 $var wire 64 - io_b $end
 $var wire 1 / printf $end
 $var wire 1 1 clock $end
 $var wire 1 8 Mul $end
 $var wire 64 ; io_a $end
 $var wire 1 = reset $end
  $scope module Mul $end
   $var wire 64 " real_er $end
   $var wire 1 $ booth_partial $end
   $var wire 32 % io_result_hi $end
   $var wire 2 ' state $end
   $var wire 64 ( src1 $end
   $var wire 64 ) src1_32 $end
   $var wire 64 * io_multiplicand $end
   $var wire 128 + real_cand $end
   $var wire 1 , clock $end
   $var wire 64 0 res $end
   $var wire 32 3 io_result_lo $end
   $var wire 2 4 io_mul_signed $end
   $var wire 64 5 src2_32 $end
   $var wire 1 6 reset $end
   $var wire 1 7 io_flush $end
   $var wire 65 9 src2 $end
   $var wire 1 : io_mulw $end
   $var wire 64 < io_multiplier $end
    $scope module booth_partial $end
     $var wire 64 # io_p $end
     $var wire 3 & io_y $end
     $var wire 64 . io_x $end
     $var wire 1 2 io_c $end
    $upscope $end
  $upscope $end
  $scope module Mul.booth_partial $end
  $upscope $end
$upscope $end
$enddefinitions $end
$dumpvars
b0000000000000000000000000000000000000000000000000000000000000000 <
b00000000000000000000000000000000000000000000000000000000000000000 9
b00000000000000000000000000000000000000000000000000000000000000000000000000000000000000000000000000000000000000000000000000000000 +
b00 '
b0000000000000000000000000000000000000000000000000000000000000000 5
0=
b0000000000000000000000000000000000000000000000000000000000000000 !
06
07
b0000000000000000000000000000000000000000000000000000000000000000 0
b000 &
08
0:
b00000000000000000000000000000000 3
02
b00 4
b0000000000000000000000000000000000000000000000000000000000000000 -
b0000000000000000000000000000000000000000000000000000000000000000 .
0/
b0000000000000000000000000000000000000000000000000000000000000000 (
b0000000000000000000000000000000000000000000000000000000000000000 )
01
b0000000000000000000000000000000000000000000000000000000000000000 *
b0000000000000000000000000000000000000000000000000000000000000000 "
b0000000000000000000000000000000000000000000000000000000000000000 #
0,
b00000000000000000000000000000000 %
0$
b0000000000000000000000000000000000000000000000000000000000000000 ;
$end
#0
b11 4
16
1=
1:
#1
11
1,
#6
b0000000000000000000000000000000000000000000000000000000000000001 -
b0000000000000000000000000000000000000000000000000000000000000001 <
b0000000000000000000000000000000000000000000000000000000000000010 "
01
b0000000000000000000000000000000000000000000000000000000000000001 5
b0000000000000000000000000000000000000000000000000000000000000010 *
06
0=
b00000000000000000000000000000000000000000000000000000000000000000000000000000000000000000000000000000000000000000000000000000010 +
0,
b0000000000000000000000000000000000000000000000000000000000000010 ;
b0000000000000000000000000000000000000000000000000000000000000010 )
#11
11
b0000000000000000000000000000000000000000000000000000000000000010 .
b010 &
b0000000000000000000000000000000000000000000000000000000000000010 #
b00000000000000000000000000000000000000000000000000000000000000010 9
b01 '
b0000000000000000000000000000000000000000000000000000000000000010 (
1,
#16
01
0,
#21
b0000000000000000000000000000000000000000000000000000000000000010 0
11
b0000000000000000000000000000000000000000000000000000000000001000 .
b000 &
b0000000000000000000000000000000000000000000000000000000000000000 #
b00000000000000000000000000000000000000000000000000000000000000000 9
b0000000000000000000000000000000000000000000000000000000000001000 (
1,
#26
01
0,
#31
b00000000000000000000000000000010 3
b0000000000000000000000000000000000000000000000000000000000000010 !
11
b10 '
1,
#36
01
0,
#41
b00000000000000000000000000000000 3
b0000000000000000000000000000000000000000000000000000000000000000 0
b0000000000000000000000000000000000000000000000000000000000000000 !
11
b00 '
1,
#46
01
0,
#51
11
b0000000000000000000000000000000000000000000000000000000000000010 .
b010 &
b0000000000000000000000000000000000000000000000000000000000000010 #
b00000000000000000000000000000000000000000000000000000000000000010 9
b01 '
b0000000000000000000000000000000000000000000000000000000000000010 (
1,
#56
01
0,
#61
b0000000000000000000000000000000000000000000000000000000000000010 0
11
b0000000000000000000000000000000000000000000000000000000000001000 .
b000 &
b0000000000000000000000000000000000000000000000000000000000000000 #
b00000000000000000000000000000000000000000000000000000000000000000 9
b0000000000000000000000000000000000000000000000000000000000001000 (
1,
#66
01
0,
#71
b00000000000000000000000000000010 3
b0000000000000000000000000000000000000000000000000000000000000010 !
11
b10 '
1,
#76
01
0,
#81
b00000000000000000000000000000000 3
b0000000000000000000000000000000000000000000000000000000000000000 0
b0000000000000000000000000000000000000000000000000000000000000000 !
11
b00 '
1,
#86
01
0,
#91
11
b0000000000000000000000000000000000000000000000000000000000000010 .
b010 &
b0000000000000000000000000000000000000000000000000000000000000010 #
b00000000000000000000000000000000000000000000000000000000000000010 9
b01 '
b0000000000000000000000000000000000000000000000000000000000000010 (
1,
#96
01
0,
#101
b0000000000000000000000000000000000000000000000000000000000000010 0
11
b0000000000000000000000000000000000000000000000000000000000001000 .
b000 &
b0000000000000000000000000000000000000000000000000000000000000000 #
b00000000000000000000000000000000000000000000000000000000000000000 9
b0000000000000000000000000000000000000000000000000000000000001000 (
1,
#106
01
0,
#111
b00000000000000000000000000000010 3
b0000000000000000000000000000000000000000000000000000000000000010 !
11
b10 '
1,
#116
01
0,
#121
b00000000000000000000000000000000 3
b0000000000000000000000000000000000000000000000000000000000000000 0
b0000000000000000000000000000000000000000000000000000000000000000 !
11
b00 '
1,
#126
01
0,
#131
11
b0000000000000000000000000000000000000000000000000000000000000010 .
b010 &
b0000000000000000000000000000000000000000000000000000000000000010 #
b00000000000000000000000000000000000000000000000000000000000000010 9
b01 '
b0000000000000000000000000000000000000000000000000000000000000010 (
1,
#136
01
0,
#141
b0000000000000000000000000000000000000000000000000000000000000010 0
11
b0000000000000000000000000000000000000000000000000000000000001000 .
b000 &
b0000000000000000000000000000000000000000000000000000000000000000 #
b00000000000000000000000000000000000000000000000000000000000000000 9
b0000000000000000000000000000000000000000000000000000000000001000 (
1,
#146
01
0,
#151
b00000000000000000000000000000010 3
b0000000000000000000000000000000000000000000000000000000000000010 !
11
b10 '
1,
#156
01
0,
#161
b00000000000000000000000000000000 3
b0000000000000000000000000000000000000000000000000000000000000000 0
b0000000000000000000000000000000000000000000000000000000000000000 !
11
b00 '
1,
#166
01
0,
#171
11
b0000000000000000000000000000000000000000000000000000000000000010 .
b010 &
b0000000000000000000000000000000000000000000000000000000000000010 #
b00000000000000000000000000000000000000000000000000000000000000010 9
b01 '
b0000000000000000000000000000000000000000000000000000000000000010 (
1,
#176
01
0,
#181
b0000000000000000000000000000000000000000000000000000000000000010 0
11
b0000000000000000000000000000000000000000000000000000000000001000 .
b000 &
b0000000000000000000000000000000000000000000000000000000000000000 #
b00000000000000000000000000000000000000000000000000000000000000000 9
b0000000000000000000000000000000000000000000000000000000000001000 (
1,
#186
01
0,
#191
b00000000000000000000000000000010 3
b0000000000000000000000000000000000000000000000000000000000000010 !
11
b10 '
1,
#196
01
0,
#201
b00000000000000000000000000000000 3
b0000000000000000000000000000000000000000000000000000000000000000 0
b0000000000000000000000000000000000000000000000000000000000000000 !
11
b00 '
1,
#206
01
0,
#211
11
b0000000000000000000000000000000000000000000000000000000000000010 .
b010 &
b0000000000000000000000000000000000000000000000000000000000000010 #
b00000000000000000000000000000000000000000000000000000000000000010 9
b01 '
b0000000000000000000000000000000000000000000000000000000000000010 (
1,
#216
01
0,
#221
b0000000000000000000000000000000000000000000000000000000000000010 0
11
b0000000000000000000000000000000000000000000000000000000000001000 .
b000 &
b0000000000000000000000000000000000000000000000000000000000000000 #
b00000000000000000000000000000000000000000000000000000000000000000 9
b0000000000000000000000000000000000000000000000000000000000001000 (
1,
#226
01
0,
#231
b00000000000000000000000000000010 3
b0000000000000000000000000000000000000000000000000000000000000010 !
11
b10 '
1,
#236
01
0,
#241
b00000000000000000000000000000000 3
b0000000000000000000000000000000000000000000000000000000000000000 0
b0000000000000000000000000000000000000000000000000000000000000000 !
11
b00 '
1,
#246
01
0,
#251
11
b0000000000000000000000000000000000000000000000000000000000000010 .
b010 &
b0000000000000000000000000000000000000000000000000000000000000010 #
b00000000000000000000000000000000000000000000000000000000000000010 9
b01 '
b0000000000000000000000000000000000000000000000000000000000000010 (
1,
#256
01
0,
#261
b0000000000000000000000000000000000000000000000000000000000000010 0
11
b0000000000000000000000000000000000000000000000000000000000001000 .
b000 &
b0000000000000000000000000000000000000000000000000000000000000000 #
b00000000000000000000000000000000000000000000000000000000000000000 9
b0000000000000000000000000000000000000000000000000000000000001000 (
1,
#266
01
0,
#271
b00000000000000000000000000000010 3
b0000000000000000000000000000000000000000000000000000000000000010 !
11
b10 '
1,
#276
01
0,
#281
b00000000000000000000000000000000 3
b0000000000000000000000000000000000000000000000000000000000000000 0
b0000000000000000000000000000000000000000000000000000000000000000 !
11
b00 '
1,
#286
01
0,
#291
11
b0000000000000000000000000000000000000000000000000000000000000010 .
b010 &
b0000000000000000000000000000000000000000000000000000000000000010 #
b00000000000000000000000000000000000000000000000000000000000000010 9
b01 '
b0000000000000000000000000000000000000000000000000000000000000010 (
1,
#296
01
0,
#301
b0000000000000000000000000000000000000000000000000000000000000010 0
11
b0000000000000000000000000000000000000000000000000000000000001000 .
b000 &
b0000000000000000000000000000000000000000000000000000000000000000 #
b00000000000000000000000000000000000000000000000000000000000000000 9
b0000000000000000000000000000000000000000000000000000000000001000 (
1,
#306
01
0,
#311
b00000000000000000000000000000010 3
b0000000000000000000000000000000000000000000000000000000000000010 !
11
b10 '
1,
#316
01
0,
#321
b00000000000000000000000000000000 3
b0000000000000000000000000000000000000000000000000000000000000000 0
b0000000000000000000000000000000000000000000000000000000000000000 !
11
b00 '
1,
#326
01
0,
#331
11
b0000000000000000000000000000000000000000000000000000000000000010 .
b010 &
b0000000000000000000000000000000000000000000000000000000000000010 #
b00000000000000000000000000000000000000000000000000000000000000010 9
b01 '
b0000000000000000000000000000000000000000000000000000000000000010 (
1,
#336
01
0,
#341
b0000000000000000000000000000000000000000000000000000000000000010 0
11
b0000000000000000000000000000000000000000000000000000000000001000 .
b000 &
b0000000000000000000000000000000000000000000000000000000000000000 #
b00000000000000000000000000000000000000000000000000000000000000000 9
b0000000000000000000000000000000000000000000000000000000000001000 (
1,
#346
01
0,
#351
b00000000000000000000000000000010 3
b0000000000000000000000000000000000000000000000000000000000000010 !
11
b10 '
1,
#356
b0000000000000000000000000000000000000000000000000000000000000000 -
01
0,
b0000000000000000000000000000000000000000000000000000000000000000 ;
